Tools for Searching Species Literature via OpenAlex • SpeciesSearchR
…
Example

Search for literature mentioning the gray wolf (Canis lupus):

library(SpeciesSearchR)
wolf <- search_species_openalex(
  species = "Canis lupus",
  synonyms = c("gray wolf", "grey wolf"),
  pages = 1
)
#> Using basic paging...
wolf
#> # A tibble: 199 × 48
#>    species     title   journal  year doi   cited_by_count publication_date id   
#>    <chr>       <chr>   <chr>   <int> <chr>          <int> <date>           <chr>
#>  1 Canis lupus Grey W… Advanc…  2014 http…          17614 2014-01-22       http…
#>  2 Canis lupus Binary… Neuroc…  2015 http…           1344 2015-08-06       http…
#>  3 Canis lupus Multi-… Expert…  2015 http…           1677 2015-11-22       http…
#>  4 Canis lupus Mitoch… Molecu…  1999 http…            362 1999-12-01       http…
#>  5 Canis lupus An imp… Expert…  2020 http…           1068 2020-09-16       http…
#>  6 Canis lupus Grey w… Neural…  2017 http…           1065 2017-11-25       http…
#>  7 Canis lupus Gray w… Veteri…  2011 http…            204 2011-05-23       http…
#>  8 Canis lupus Hypoxi… PLoS G…  2014 http…            189 2014-07-31       http…
#>  9 Canis lupus How ef… Applie…  2015 http…            657 2015-01-15       http…
#> 10 Canis lupus A nove… Swarm …  2018 http…            430 2018-01-05       http…
#> # ℹ 189 more rows
#> # ℹ 40 more variables: display_name <chr>, authorships <list>, abstract <chr>,
#> #   publication_year <int>, relevance_score <dbl>, fwci <dbl>,
#> #   counts_by_year <list>, ids <list>, type <chr>, is_oa <lgl>,
#> #   is_oa_anywhere <lgl>, oa_status <chr>, oa_url <chr>,
#> #   any_repository_has_fulltext <lgl>, source_display_name <chr>,
#> #   source_id <chr>, issn_l <chr>, host_organization <chr>, …
…
results <- purrr::imap_dfr(
  species_list,
  ~ search_species_openalex(
      species = .x[1],
      synonyms = .x[-1],
      pages = 1
    )
)
#> Using basic paging...
#> Using basic paging...
#> Using basic paging...

results
#> # A tibble: 597 × 48
#>    species     title   journal  year doi   cited_by_count publication_date id   
#>    <chr>       <chr>   <chr>   <int> <chr>          <int> <date>           <chr>
#>  1 Canis lupus Grey W… Advanc…  2014 http…          17614 2014-01-22       http…
#>  2 Canis lupus Binary… Neuroc…  2015 http…           1344 2015-08-06       http…
#>  3 Canis lupus Multi-… Expert…  2015 http…           1677 2015-11-22       http…
#>  4 Canis lupus Mitoch… Molecu…  1999 http…            362 1999-12-01       http…
#>  5 Canis lupus An imp… Expert…  2020 http…           1068 2020-09-16       http…
#>  6 Canis lupus Grey w… Neural…  2017 http…           1065 2017-11-25       http…
#>  7 Canis lupus Gray w… Veteri…  2011 http…            204 2011-05-23       http…
#>  8 Canis lupus Hypoxi… PLoS G…  2014 http…            189 2014-07-31       http…
#>  9 Canis lupus How ef… Applie…  2015 http…            657 2015-01-15       http…
#> 10 Canis lupus A nove… Swarm …  2018 http…            430 2018-01-05       http…
#> # ℹ 587 more rows
#> # ℹ 40 more variables: display_name <chr>, authorships <list>, abstract <chr>,
#> #   publication_year <int>, relevance_score <dbl>, fwci <dbl>,
#> #   counts_by_year <list>, ids <list>, type <chr>, is_oa <lgl>,
#> #   is_oa_anywhere <lgl>, oa_status <chr>, oa_url <chr>,
#> #   any_repository_has_fulltext <lgl>, source_display_name <chr>,
#> #   source_id <chr>, issn_l <chr>, host_organization <chr>, …
…
